{
    "names":[
        {
            "firstname":"Bob",
            "age": "23"
        },
        {
            "firstname":"Andrew",
            "age": "32"
        },
        {
            "firstname":"Fury",
            "age": "33"
        },
        {
            "firstname":"Tyson",
            "age": "25"
        },
        {
            "firstname":"Mike",
            "age": "24"
        }
    ]
}